Label the columns in a data set • yspec
…
library(tidyverse)
library(yspec)

Load specification object and data set

We’ll use the examples provided in the package

data <- ys_help$data()
spec <- ys_help$spec()

The data

as_tibble(data)

. # A tibble: 4,360 x 29
.    C       NUM    ID  SUBJ  TIME   SEQ   CMT  EVID   AMT    DV   AGE    WT  CRCL
.    <lgl> <int> <int> <int> <dbl> <int> <int> <int> <int> <dbl> <dbl> <dbl> <dbl>
.  1 NA        1     1     1  0        0     1     1     5   0    28.0  55.2  114.
.  2 NA        2     1     1  0.61     1     2     0    NA  61.0  28.0  55.2  114.
.  3 NA        3     1     1  1.15     1     2     0    NA  91.0  28.0  55.2  114.
.  4 NA        4     1     1  1.73     1     2     0    NA 122.   28.0  55.2  114.
.  5 NA        5     1     1  2.15     1     2     0    NA 126.   28.0  55.2  114.
.  6 NA        6     1     1  3.19     1     2     0    NA  84.7  28.0  55.2  114.
.  7 NA        7     1     1  4.21     1     2     0    NA  62.1  28.0  55.2  114.
.  8 NA        8     1     1  5.09     1     2     0    NA  49.1  28.0  55.2  114.
.  9 NA        9     1     1  6.22     1     2     0    NA  64.2  28.0  55.2  114.
. 10 NA       10     1     1  8.09     1     2     0    NA  59.6  28.0  55.2  114.
. # … with 4,350 more rows, and 16 more variables: ALB <dbl>, BMI <dbl>,
. #   AAG <dbl>, SCR <dbl>, AST <dbl>, ALT <dbl>, HT <dbl>, CP <int>, TAFD <dbl>,
. #   TAD <dbl>, LDOS <int>, MDV <int>, BLQ <int>, PHASE <int>, STUDY <int>,
. #   RF <chr>
…
Use ys_add_labels

data <- ys_add_labels(data,spec)

It isn’t obvious that anything was done here

as_tibble(data)

. # A tibble: 4,360 x 29
.    C       NUM    ID  SUBJ  TIME   SEQ   CMT  EVID   AMT    DV   AGE    WT  CRCL
.    <lgl> <int> <int> <int> <dbl> <int> <int> <int> <int> <dbl> <dbl> <dbl> <dbl>
.  1 NA        1     1     1  0        0     1     1     5   0    28.0  55.2  114.
.  2 NA        2     1     1  0.61     1     2     0    NA  61.0  28.0  55.2  114.
.  3 NA        3     1     1  1.15     1     2     0    NA  91.0  28.0  55.2  114.
.  4 NA        4     1     1  1.73     1     2     0    NA 122.   28.0  55.2  114.
.  5 NA        5     1     1  2.15     1     2     0    NA 126.   28.0  55.2  114.
.  6 NA        6     1     1  3.19     1     2     0    NA  84.7  28.0  55.2  114.
.  7 NA        7     1     1  4.21     1     2     0    NA  62.1  28.0  55.2  114.
.  8 NA        8     1     1  5.09     1     2     0    NA  49.1  28.0  55.2  114.
.  9 NA        9     1     1  6.22     1     2     0    NA  64.2  28.0  55.2  114.
. 10 NA       10     1     1  8.09     1     2     0    NA  59.6  28.0  55.2  114.
. # … with 4,350 more rows, and 16 more variables: ALB <dbl>, BMI <dbl>,
. #   AAG <dbl>, SCR <dbl>, AST <dbl>, ALT <dbl>, HT <dbl>, CP <int>, TAFD <dbl>,
. #   TAD <dbl>, LDOS <int>, MDV <int>, BLQ <int>, PHASE <int>, STUDY <int>,
. #   RF <chr>
…
