Render a spec as a pandoc table — pander_table • yspec
…
    Arguments

      x
      a spec object

      ...
      passed to other functions

    Examples

spec <- load_spec_ex()

pander_table_df(spec)
#> # A tibble: 62 x 4
#>    Column  Type      Field      Value                       
#>    <chr>   <chr>     <chr>      <chr>                       
#>  1 C       character short-name commented row indicator     
#>  2 ""      ""        values     ., C                        
#>  3 ""      ""        long-name  commented rows              
#>  4 USUBJID character short-name USUBJID                     
#>  5 ""      ""        long-name  universal subject identifier
#>  6 ID      numeric   short-name ID                          
#>  7 ""      ""        long-name  NONMEM ID number            
#>  8 EVID    numeric   short-name event ID                    
#>  9 ""      ""        long-name  event ID indicator          
#> 10 ""      ""        comment    per NONMEM specifications   
#> # ... with 52 more rows
…
